{
  "code": "23456",
  "version": "2",
  "reference": "",
  "analyst": "Yesid",
  "coordinator": "Andrea",
  "typeSample": "2",
  "responsibleSample": "Paola",
  "quantity": "2",
  "lote": "12345",
  "typeContainer": "basic",
  "color": "red",
  "smell": "sfsdf",
  "appearance": "normal",
  "characteristicsOrganoleptic": "",
  "temperature": "22",
  "manufacturingDate": "2019-12-11T00:00:00-05:00",
  "expirationDate": "2019-12-12T00:00:00-05:00",
  "receiptDate": "2019-12-13T00:00:00-05:00",
  "startDateAnalysis": "2019-12-14T00:00:00-05:00",
  "endDateAnalysis": "2019-12-15T00:00:00-05:00",
  "reportDate": "2019-12-16T00:00:00-05:00",
  "agreedDeliveryDate": "2019-12-17T00:00:00-05:00",
  "deliveryDate": "2019-12-18T00:00:00-05:00",
  "takeSampleDate": "2019-12-19T00:00:00-05:00",
  "products": "5d6fe74d51215200171f08b4"
}
